{
    "wiki": "{{Short description|Disambiguation article}}\n{{Wiktionary|array}}\n\nAn '''array''' is a systematic arrangement of similar objects, usually in rows and columns.\n\nThings called an array include:\n{{TOC right}}\n\n== Music ==\n* In [[Twelve-tone technique|twelve-tone]] and [[Serialism|serial]] composition, the presentation of simultaneous twelve-tone sets such that the sums of their horizontal segments form a succession of twelve-tone [[tone row#total_chromatic|aggregates]]\n* [[Array mbira]], a musical instrument\n* [[Spiral array model]], a music pitch space\n\n== Science ==\n=== Astronomy ===\nA [[telescope array]], also called astronomical interferometer.\n\n=== Biology ===\n* Various kinds of multiple biological arrays called [[microarray]]s\n* [[Visual feature array]], a model for the visual cortex\n\n=== Computer science ===\nGenerally, a collection of same type data items that can be selected by indices computed at run-time, including:\n\n* [[Array data structure]], an arrangement of items at equally spaced addresses in computer memory\n* [[Array data type]], used in a programming language to specify a variable that can be indexed\n* [[Associative array]], an abstract data structure model composed of key-value pairs, often implemented as a hash table or search tree\nor various kinds of the above, such as:\n* [[Bit array]] or bit vector\n* [[Dynamic array]], allocated at run time\n* [[Jagged array]], a multidimensional array where the rows have different lengths individually\n* [[Parallel array]] of records, with each field stored as a separate array\n* [[Sparse array]], with most elements omitted, to store a sparse matrix\n* [[Variable-length array]]\n\nor various related concepts:\n* [[Array programming]], using matrix algebra notation in programs (not the same as array processing)\n* [[Array slicing]], the extraction of sub-arrays of an array\n\nor also:\n* [[Global Arrays]], a library for parallel processing\n* [[Intel Array Visualizer]], a piece of scientific graphics software\n\n=== Mathematics and statistics ===\n* A [[standard array]] in coding theory\n* An array or [[matrix (mathematics)]]\n** a [[Costas array]]\n** a [[Monge array]]\n* A [[holor]]\n* In statistics, arrays are a name for some kinds of [[:Category:Experimental design]]\n* [[Intersection array]] a concept of category theory\n\n== Technology ==\n===Computing===\n* [[Array data structure]], an arrangement of data in computer memory\n* [[Asynchronous array of simple processors]]\n* [[Disk array]], such as the RAID\n* [[Gate array]], including a [[field-programmable gate array]] (FPGA)\n* [[ICL Distributed Array Processor]], an array processor for the ICL\n* Integrated circuit packages:\n** [[Ball grid array]]\n** [[pin grid array]]\n** [[land grid array]]\n* [[Processor array]]\n* [[Programmable Array Logic]] (PAL), a systematic way to implement boolean functions\n* [[Reconfigurable datapath array]], a flexible data processing architecture\n* [[Systolic array]], a hardware architecture\n* [[Transistor array]], an integrated circuit\n* [[Video Graphics Array]] (VGA), a display adapter and many variants thereof\n* [[Wi-Fi array]], a wireless networking device\n\n===Other technologies===\n* [[Antenna array]]\n* [[Array gain]], a telecommunications parameter\n* [[Array processing]] of multichannel signals (not to be confused with array programming)\n* [[Color filter array]], placed over an imaging array\n* [[Field emitter array]], an electron source\n* [[Halbach array]], an arrangement of magnets\n* [[Linear diode array]] used in image scanners\n* [[Microphone array]]\n* [[Parametric array]] of transducers\n* [[Phased-array optics]]\n* [[Photovoltaic array]]\n* [[Staring array]], an imaging sensor\n* [[Towed array sonar]]\n\n== Other ==\n* A [[Commission of Array]], a commission for mustering a militia\n* [[ARRAY]], an independent film distribution company\n* [[Array Networks]], a computer networking company\n*[[Array Collective]], a Belfast-based artist-activist collaborative project\n\n[[Category:Arrays| ]]",
    "title": "Array",
    "url": "https://en.wikipedia.org/wiki/Array}",
    "lang": "enwikipedia",
    "domain": "wikipedia",
    "pageID": 21565793
}